211
0 324 495
1 323 492
2 320 495
3 318 493
4 318 495
5 316 492
6 318 493
7 319 496
8 320 495
9 322 494
10 321 496
11 331 492
12 332 492
13 329 493
14 327 491
15 329 491
16 331 491
17 333 490
18 333 492
19 337 493
20 341 493
21 344 494
22 341 491
23 341 492
24 340 492
25 342 492
26 341 493
27 343 495
28 346 497
29 348 490
30 347 491
31 345 493
32 351 494
33 349 493
34 348 492
35 348 493
36 350 497
37 354 494
38 352 496
39 350 495
40 344 492
41 342 494
42 342 491
43 338 491
44 334 493
45 333 493
46 333 492
47 336 494
48 343 493
49 343 492
50 345 494
51 348 495
52 348 492
53 349 491
54 350 494
55 348 491
56 350 495
57 344 492
58 344 491
59 345 492
60 343 490
61 340 493
62 339 493
63 344 491
64 344 491
65 343 490
66 343 493
67 347 491
68 346 491
69 345 492
70 345 494
71 345 494
72 343 496
73 344 494
74 342 491
75 344 492
76 339 494
77 337 493
78 342 492
79 344 491
80 346 491
81 343 492
82 346 492
83 347 492
84 345 493
85 347 492
86 349 494
87 350 494
88 345 491
89 343 491
90 343 494
91 344 491
92 339 490
93 338 492
94 339 492
95 340 491
96 342 491
97 344 493
98 341 494
99 342 491
100 341 493
101 342 494
102 341 495
103 340 491
104 340 491
105 344 497
106 333 491
107 332 491
108 331 491
109 330 492
110 330 495
111 335 495
112 335 494
113 333 493
114 332 492
115 333 495
116 331 498
117 328 496
118 322 495
119 317 493
120 317 499
121 308 492
122 304 494
123 303 496
124 300 494
125 301 494
126 299 494
127 301 495
128 308 493
129 311 493
130 308 494
131 309 494
132 315 495
133 317 493
134 314 490
135 316 491
136 314 492
137 313 492
138 310 493
139 309 493
140 307 493
141 305 492
142 305 494
143 307 492
144 310 490
145 309 491
146 311 492
147 313 493
148 317 494
149 318 496
150 317 497
151 318 496
152 318 495
153 319 497
154 316 498
155 313 503
156 311 500
157 317 508
158 313 520
159 317 524
160 314 527
161 323 533
162 320 547
163 359 499
164 360 494
165 359 494
166 359 488
167 358 493
168 367 473
169 368 473
170 367 475
171 432 454
172 358 455
173 358 458
174 356 463
175 358 465
176 361 469
177 363 468
178 415 466
179 358 468
180 359 469
181 359 470
182 359 471
183 359 471
184 360 471
185 359 470
186 359 476
187 360 471
188 360 471
189 360 471
190 360 470
191 360 470
192 360 470
193 360 470
194 360 470
195 361 470
196 360 470
197 360 470
198 360 470
199 360 470
200 360 470
201 360 470
202 360 470
203 360 470
204 360 470
205 360 470
206 361 470
207 360 470
208 360 470
209 360 470
210 360 470
